^C:\USERS\STRANDOM\DOCUMENTS\VISUAL STUDIO 2010\PROJECTS\WPM\WPM\DEBUG\WPM.EXE.INTERMEDIATE.MANIFEST
C:\USERS\STRANDOM\DOCUMENTS\VISUAL STUDIO 2010\PROJECTS\WPM\DEBUG\WPM.EXE
^D:\JOB\WPM\WPM\DEBUG\WPM.EXE.INTERMEDIATE.MANIFEST
D:\JOB\WPM\DEBUG\WPM.EXE
