^C:\USERS\STRANDOM\DOCUMENTS\VISUAL STUDIO 2010\PROJECTS\WPM\HOOKPROC\HOOKPROC.CPP
C:\USERS\STRANDOM\DOCUMENTS\VISUAL STUDIO 2010\PROJECTS\WPM\HOOKPROC\DEBUG\VC100.PDB
C:\USERS\STRANDOM\DOCUMENTS\VISUAL STUDIO 2010\PROJECTS\WPM\HOOKPROC\DEBUG\HOOKPROC.OBJ
