^D:\JOB\WPM\WPM\RELEASE\CAPP.OBJ|D:\JOB\WPM\WPM\RELEASE\CFAKEWINDOW.OBJ|D:\JOB\WPM\WPM\RELEASE\DLGMAIN.OBJ|D:\JOB\WPM\WPM\RELEASE\GLOBALDATA.OBJ|D:\JOB\WPM\WPM\RELEASE\HELP.OBJ|D:\JOB\WPM\WPM\RELEASE\LANG.OBJ|D:\JOB\WPM\WPM\RELEASE\REGISTRY.OBJ|D:\JOB\WPM\WPM\RELEASE\STDAFX.OBJ|D:\JOB\WPM\WPM\RELEASE\TRACELOGGER.OBJ|D:\JOB\WPM\WPM\RELEASE\TRAYICON.OBJ|D:\JOB\WPM\WPM\RELEASE\USAGESTAT.OBJ|D:\JOB\WPM\WPM\RELEASE\UTILS.OBJ|D:\JOB\WPM\WPM\RELEASE\WPCONTROL.OBJ|D:\JOB\WPM\WPM\RELEASE\WPM.RES|D:\JOB\WPM\WPM\RELEASE\WPMAPP.OBJ
/ERRORREPORT:PROMPT /OUT:"D:\Job\WPM\Release\WPM.exe" /NOLOGO /LIBPATH:"C:\Program Files (x86)\Visual Leak Detector\lib\Win32" Version.lib comctl32.lib ..\Release\KbdHook.lib kernel32.lib user32.lib gdi32.lib winspool.lib comdlg32.lib advapi32.lib shell32.lib ole32.lib oleaut32.lib uuid.lib odbc32.lib odbccp32.lib /MANIFEST /ManifestFile:"Release\WPM.exe.intermediate.manifest" /MANIFESTUAC:"level='asInvoker' uiAccess='false'" /DEBUG /PDB:"D:\Job\WPM\Release\WPM.pdb" /SUBSYSTEM:WINDOWS /OPT:REF /OPT:ICF /LTCG /TLBID:1 /DYNAMICBASE /NXCOMPAT /IMPLIB:"D:\Job\WPM\Release\WPM.lib" /MACHINE:X86 Release\WPM.res
Release\CApp.obj
Release\CFakeWindow.obj
Release\DlgMain.obj
Release\GlobalData.obj
Release\Help.obj
Release\Lang.obj
Release\Registry.obj
Release\StdAfx.obj
Release\TraceLogger.obj
Release\TrayIcon.obj
Release\UsageStat.obj
Release\Utils.obj
Release\WPControl.obj
Release\WPMApp.obj
